Webinar 2: Introduction to R for Air Quality Applications - Working with Data - reduced file
…
also found here (https://media.giphy.com/media/hRyKQvSrAGiVe8eTX3/source.gif)

filter() in R

We did not use this in our example, but it is a common function.

For instance, say you have a dataset, and you only care about observations above a certain threshold (See Ex Below)

There are endless combinations using Boolean operators

#Change data to actually perform operations 
Monitoring_long %>% 
  filter(Ozone > 0.070)

## # A tibble: 51 x 3
##    Timestamp           Measure                 Ozone
##    <dttm>              <chr>                   <dbl>
##  1 2019-06-27 11:00:00 Bellefonte II Ozone ppm 0.072
##  2 2019-06-27 12:00:00 Bellefonte II Ozone ppm 0.071
##  3 2019-06-27 13:00:00 Bellefonte II Ozone ppm 0.072
##  4 2019-06-27 14:00:00 Bellefonte II Ozone ppm 0.074
##  5 2019-06-27 15:00:00 Bellefonte II Ozone ppm 0.074
##  6 2019-06-27 16:00:00 Bellefonte II Ozone ppm 0.075
##  7 2019-06-28 10:00:00 Bellefonte II Ozone ppm 0.079
##  8 2019-06-28 11:00:00 Bellefonte II Ozone ppm 0.08 
##  9 2019-06-28 15:00:00 Bellefonte II Ozone ppm 0.074
## 10 2019-06-29 12:00:00 Bellefonte II Ozone ppm 0.071
## # ... with 41 more rows
…
Also found here: (https://media.giphy.com/media/Ss0vgFAdlg5JWIemMD/source.gif)

arrange() in R

Like using a filter in Excel, arrange allows you to rearrange your rows based on the conditions you give it

I often use this in combination with head() to see my top values of a certain column

For example, in our dataset, what were the highest readings for ozone?

View(Monitoring_long)
Monitoring_long %>% 
  arrange(desc(Ozone))

## # A tibble: 1,176 x 3
##    Timestamp           Measure                               Ozone
##    <dttm>              <chr>                                 <dbl>
##  1 2019-07-02 14:00:00 Martin Luther King Ozone ppm          0.092
##  2 2019-07-02 14:00:00 Bellefonte II Ozone ppm               0.09 
##  3 2019-07-02 15:00:00 Bellefonte II Ozone ppm               0.089
##  4 2019-07-02 14:00:00 Lums Pond State Park Ozone ppm        0.088
##  5 2019-07-02 13:00:00 Martin Luther King Ozone ppm          0.086
##  6 2019-07-02 15:00:00 Martin Luther King Ozone ppm          0.086
##  7 2019-07-02 15:00:00 Brandywine Creek State Park Ozone ppm 0.085
##  8 2019-07-02 15:00:00 Lums Pond State Park Ozone ppm        0.084
##  9 2019-07-02 16:00:00 Bellefonte II Ozone ppm               0.083
## 10 2019-07-02 14:00:00 Brandywine Creek State Park Ozone ppm 0.083
## # ... with 1,166 more rows
…
#we had to re-create the day column in this example, using the "date()" function

What about average ozone by day by station??

Monitoring_long %>%
  mutate(date_col = date(Timestamp)) %>%
  group_by(date_col, Measure) %>%
  summarize(DailyAvg = round(mean(Ozone, na.rm = T), 4))

## # A tibble: 49 x 3
## # Groups:   date_col [7]
##    date_col   Measure                               DailyAvg
##    <date>     <chr>                                    <dbl>
##  1 2019-06-26 Bellefonte II Ozone ppm                 0.0537
##  2 2019-06-26 Brandywine Creek State Park Ozone ppm   0.0504
##  3 2019-06-26 Killens Pond Ozone ppm                  0.0451
##  4 2019-06-26 Lewes Ozone ppm                         0.0432
##  5 2019-06-26 Lums Pond State Park Ozone ppm          0.0366
##  6 2019-06-26 Martin Luther King Ozone ppm            0.0478
##  7 2019-06-26 Seaford Ozone ppm                       0.0489
##  8 2019-06-27 Bellefonte II Ozone ppm                 0.0542
##  9 2019-06-27 Brandywine Creek State Park Ozone ppm   0.0525
## 10 2019-06-27 Killens Pond Ozone ppm                  0.0455
## # ... with 39 more rows
…
